<?xml version="1.0" encoding="utf-8"?>
<!-- Generator: Adobe Illustrator 17.0.0, SVG Export Plug-In . SVG Version: 6.00 Build 0)  -->
<!DOCTYPE svg PUBLIC "-//W3C//DTD SVG 1.1//EN" "http://www.w3.org/Graphics/SVG/1.1/DTD/svg11.dtd">
<svg version="1.1" id="Layer_1" xmlns="http://www.w3.org/2000/svg" xmlns:xlink="http://www.w3.org/1999/xlink" x="0px" y="0px"
	 width="40px" height="40px" viewBox="0 0 40 40" enable-background="new 0 0 40 40" xml:space="preserve">
<path fill="#739FB0" d="M19.988,1C9.502,1,1,9.502,1,19.988c0,10.489,8.502,18.988,18.988,18.988
	c10.487,0,18.988-8.499,18.988-18.988C38.976,9.502,30.475,1,19.988,1z M24.056,19.995h-2.661c0,4.251,0,9.487,0,9.487h-3.942
	c0,0,0-5.183,0-9.487h-1.875v-3.351h1.875v-2.17c0-1.553,0.737-3.979,3.978-3.979l2.92,0.011v3.255c0,0-1.775,0-2.119,0
	c-0.346,0-0.837,0.172-0.837,0.913v1.97h3.007L24.056,19.995z"/>
</svg>
