<?xml version="1.0" encoding="utf-8"?>
<!-- Generator: Adobe Illustrator 17.0.0, SVG Export Plug-In . SVG Version: 6.00 Build 0)  -->
<!DOCTYPE svg PUBLIC "-//W3C//DTD SVG 1.1//EN" "http://www.w3.org/Graphics/SVG/1.1/DTD/svg11.dtd">
<svg version="1.1" id="Layer_1" xmlns="http://www.w3.org/2000/svg" xmlns:xlink="http://www.w3.org/1999/xlink" x="0px" y="0px"
	 width="500px" height="134px" viewBox="0 0 500 134" enable-background="new 0 0 500 134" xml:space="preserve">
<polygon fill="#507D87" points="308.836,38.993 320.204,52.854 293.5,60.197 297.729,45.509 "/>
<polygon fill="#507D87" points="204.272,127.896 196.473,112.715 227.406,112.271 214.722,123.621 "/>
<rect x="231.836" y="52.287" fill="#739EAF" width="263.177" height="62.315"/>
<rect x="4.388" y="52.287" fill="#739EAF" width="256.32" height="62.315"/>
<g>
	<path fill="#FFFFFF" d="M20.712,97.342l9.758-26.994h6.879l9.385,26.994h-5.833l-1.944-5.721H28.265l-2.019,5.721H20.712z
		 M37.499,87.135L33.798,75.62h-0.074L29.76,87.135H37.499z"/>
	<path fill="#FFFFFF" d="M69.579,97.342L58.923,74.909l-0.074,0.075v22.358h-5.422V70.348h8.6l10.282,21.237l0.075-0.075V70.348
		h5.421v26.994H69.579z"/>
	<path fill="#FFFFFF" d="M91.9,97.342h-5.795V70.348H91.9V97.342z"/>
	<path fill="#FFFFFF" d="M117.624,97.342h-4.823l-7.141-23.181l-0.075,0.075v23.106h-5.421V70.348h9.497l5.646,19.629h0.075
		l6.132-19.629h9.16v26.994h-5.422V74.236l-0.075-0.075L117.624,97.342z"/>
	<path fill="#FFFFFF" d="M137.44,97.342l9.758-26.994h6.88l9.385,26.994h-5.833l-1.944-5.721h-10.693l-2.019,5.721H137.44z
		 M154.227,87.135l-3.701-11.515h-0.075l-3.963,11.515H154.227z"/>
	<path fill="#FFFFFF" d="M170.267,97.342V70.348h5.795v22.508h11.703v4.486H170.267z"/>
	<path fill="#FFFFFF" d="M209.188,78.05c-0.224-2.729-1.682-4.076-4.486-4.076c-2.131,0-4.3,1.122-4.3,3.477
		c0,2.917,2.617,3.253,4.936,3.814c4.113,1.047,10.17,2.206,10.17,7.627c0,6.692-5.833,9.011-11.628,9.011
		c-6.169,0-10.543-2.393-10.357-9.197h5.908c-0.224,2.991,1.495,5.009,4.524,5.009c2.318,0,5.384-0.71,5.384-3.589
		c0-3.178-3.851-3.402-6.169-4c-3.776-0.935-8.936-2.655-8.936-7.44c0-6.17,5.683-8.899,11.217-8.899c5.235,0,9.31,2.842,9.31,8.263
		H209.188z"/>
</g>
<g>
	<path fill="#FFFFFF" d="M313.943,78.05c-0.224-2.729-1.682-4.076-4.486-4.076c-2.132,0-4.3,1.122-4.3,3.477
		c0,2.917,2.618,3.253,4.936,3.814c4.112,1.047,10.17,2.206,10.17,7.627c0,6.692-5.833,9.011-11.628,9.011
		c-6.169,0-10.544-2.393-10.356-9.197h5.907c-0.224,2.991,1.496,5.009,4.523,5.009c2.318,0,5.384-0.71,5.384-3.589
		c0-3.178-3.851-3.402-6.169-4c-3.776-0.935-8.935-2.655-8.935-7.44c0-6.17,5.682-8.899,11.217-8.899
		c5.234,0,9.309,2.842,9.309,8.263H313.943z"/>
	<path fill="#FFFFFF" d="M327.215,83.845c0-7.964,4.039-14.058,12.974-14.058c8.936,0,12.974,6.095,12.974,14.058
		c0,7.964-4.038,14.058-12.974,14.058C331.254,97.903,327.215,91.809,327.215,83.845z M333.385,83.845
		c0,4.636,1.085,9.87,6.805,9.87c5.721,0,6.805-5.234,6.805-9.87c0-4.636-1.084-9.871-6.805-9.871
		C334.469,73.974,333.385,79.209,333.385,83.845z"/>
	<path fill="#FFFFFF" d="M376.233,79.096c0.038-2.841-1.682-5.122-5.159-5.122c-4.112,0-5.159,6.095-5.159,9.871
		c0,3.776,1.047,9.87,5.159,9.87c3.477,0,5.197-2.28,5.159-5.122h6.17c-0.262,6.767-5.123,9.31-11.329,9.31
		c-7.814,0-11.329-6.169-11.329-14.058s3.515-14.058,11.329-14.058c6.206,0,11.067,2.542,11.329,9.31H376.233z"/>
	<path fill="#FFFFFF" d="M395.264,97.342h-5.795V70.348h5.795V97.342z"/>
	<path fill="#FFFFFF" d="M403.452,70.348h18.097v4.486h-12.301v6.319h11.516v4.486h-11.516v7.216h12.712v4.486h-18.507V70.348z"/>
	<path fill="#FFFFFF" d="M428.353,70.348h21.872v4.486h-8.039v22.508h-5.795V74.834h-8.038V70.348z"/>
	<path fill="#FFFFFF" d="M464.021,88.519l-9.085-18.171h6.767l5.571,12.376l5.683-12.376h5.945l-9.086,18.171v8.823h-5.795V88.519z"
		/>
</g>
<g>
	<path fill="#3C5C62" d="M28.621,24.8c0,1.137,0,5.65,0.113,6.637c-0.076,0.227-0.303,0.417-0.72,0.417
		c-0.455-0.645-1.555-1.972-4.854-5.726l-8.797-10.012c-1.024-1.175-3.603-4.285-4.399-5.119H9.888
		c-0.152,0.455-0.19,1.328-0.19,2.465v8.266c0,1.783,0.038,6.712,0.682,7.85c0.227,0.418,0.986,0.645,1.934,0.721l1.176,0.114
		c0.227,0.303,0.189,0.758-0.076,0.948c-1.707-0.076-3.034-0.114-4.437-0.114c-1.592,0-2.616,0.038-3.944,0.114
		c-0.266-0.19-0.303-0.721-0.076-0.948l1.024-0.114c0.872-0.113,1.479-0.341,1.668-0.759c0.531-1.365,0.493-5.992,0.493-7.812
		V10.769c0-1.062-0.039-1.858-0.834-2.73c-0.532-0.531-1.441-0.796-2.351-0.91L4.313,7.052C4.085,6.825,4.085,6.256,4.388,6.104
		c1.593,0.113,3.603,0.113,4.285,0.113c0.607,0,1.251-0.038,1.744-0.113c0.759,1.934,5.233,6.939,6.484,8.343l3.679,4.133
		c2.616,2.92,4.474,5.044,6.257,6.864h0.076c0.152-0.19,0.152-0.797,0.152-1.593v-8.115c0-1.783-0.039-6.713-0.759-7.85
		c-0.228-0.341-0.834-0.569-2.351-0.758l-0.645-0.076c-0.266-0.228-0.227-0.834,0.076-0.948c1.744,0.076,3.034,0.113,4.474,0.113
		c1.631,0,2.617-0.038,3.906-0.113c0.303,0.19,0.303,0.72,0.075,0.948l-0.531,0.076c-1.213,0.189-1.972,0.493-2.123,0.796
		c-0.645,1.365-0.569,6.067-0.569,7.812V24.8z"/>
	<path fill="#3C5C62" d="M52.283,22.449c-0.266-0.834-0.417-0.948-1.554-0.948h-5.727c-0.948,0-1.175,0.114-1.441,0.91l-1.327,3.982
		c-0.569,1.707-0.835,2.73-0.835,3.148c0,0.455,0.19,0.683,1.1,0.759l1.251,0.114c0.266,0.19,0.266,0.796-0.076,0.948
		c-0.986-0.076-2.162-0.076-3.943-0.114c-1.251,0-2.617,0.075-3.64,0.114c-0.228-0.152-0.304-0.758-0.076-0.948l1.251-0.114
		c0.91-0.076,1.744-0.493,2.276-1.858c0.682-1.744,1.744-4.209,3.337-8.457l3.868-10.238c0.531-1.365,0.759-2.086,0.645-2.693
		c0.91-0.266,1.555-0.948,1.972-1.441c0.227,0,0.493,0.075,0.568,0.341c0.493,1.669,1.1,3.413,1.669,5.082l5.195,15.245
		c1.1,3.261,1.592,3.83,3.223,4.02l1.024,0.114c0.265,0.19,0.19,0.796,0,0.948c-1.555-0.076-2.882-0.114-4.589-0.114
		c-1.82,0-3.261,0.075-4.361,0.114c-0.303-0.152-0.341-0.758-0.076-0.948l1.1-0.114c0.796-0.076,1.327-0.303,1.327-0.683
		c0-0.417-0.189-1.1-0.492-2.01L52.283,22.449z M44.775,19.073c-0.303,0.872-0.265,0.91,0.797,0.91h4.664
		c1.1,0,1.176-0.152,0.834-1.175l-2.047-6.182c-0.304-0.91-0.645-1.934-0.872-2.389h-0.076c-0.114,0.19-0.493,1.1-0.91,2.237
		L44.775,19.073z"/>
	<path fill="#3C5C62" d="M75.566,25.558c0,3.982,0.076,4.551,2.276,4.74l1.213,0.114c0.227,0.152,0.151,0.834-0.076,0.948
		c-2.161-0.076-3.451-0.114-4.968-0.114c-1.517,0-2.844,0.038-5.271,0.114c-0.227-0.114-0.303-0.758,0-0.948l1.365-0.114
		c2.162-0.19,2.351-0.759,2.351-4.74V8.607c0-1.175,0-1.213-1.138-1.213h-2.085c-1.631,0-3.716,0.076-4.665,0.948
		c-0.91,0.834-1.289,1.669-1.706,2.617c-0.304,0.227-0.834,0.038-0.986-0.266c0.606-1.707,1.176-4.133,1.441-5.65
		c0.114-0.076,0.607-0.114,0.721,0c0.227,1.213,1.479,1.175,3.223,1.175H82.62c2.048,0,2.389-0.076,2.958-1.062
		c0.19-0.076,0.607-0.038,0.683,0.114c-0.417,1.555-0.683,4.626-0.569,5.764c-0.151,0.303-0.796,0.303-0.986,0.076
		c-0.114-0.948-0.379-2.351-0.948-2.769c-0.872-0.645-2.313-0.948-4.399-0.948h-2.692c-1.138,0-1.1,0.038-1.1,1.29V25.558z"/>
	<path fill="#3C5C62" d="M95.285,11.982c0-4.02-0.076-4.664-2.314-4.853l-0.948-0.076c-0.227-0.152-0.152-0.834,0.076-0.948
		c1.896,0.076,3.186,0.113,4.778,0.113c1.517,0,2.806-0.038,4.702-0.113c0.228,0.113,0.304,0.796,0.076,0.948l-0.948,0.076
		c-2.237,0.189-2.314,0.833-2.314,4.853v13.5c0,4.02,0.076,4.551,2.314,4.816l0.948,0.114c0.227,0.152,0.152,0.834-0.076,0.948
		c-1.896-0.076-3.185-0.114-4.702-0.114c-1.592,0-2.882,0.038-4.778,0.114c-0.227-0.114-0.303-0.721-0.076-0.948l0.948-0.114
		c2.238-0.266,2.314-0.797,2.314-4.816V11.982z"/>
	<path fill="#3C5C62" d="M108.785,18.998c0-7.585,5.688-13.386,13.5-13.386c8.759,0,13.159,6.333,13.159,13.007
		c0,7.66-5.84,13.235-13.159,13.235C113.866,31.853,108.785,25.823,108.785,18.998z M131.652,19.794
		c0-6.256-2.768-13.007-10.011-13.007c-3.944,0-9.064,2.692-9.064,10.997c0,5.612,2.731,12.893,10.202,12.893
		C127.328,30.678,131.652,27.264,131.652,19.794z"/>
	<path fill="#3C5C62" d="M166.235,24.8c0,1.137,0,5.65,0.114,6.637c-0.076,0.227-0.304,0.417-0.72,0.417
		c-0.455-0.645-1.555-1.972-4.854-5.726l-8.798-10.012c-1.024-1.175-3.603-4.285-4.399-5.119h-0.076
		c-0.152,0.455-0.19,1.328-0.19,2.465v8.266c0,1.783,0.038,6.712,0.682,7.85c0.228,0.418,0.986,0.645,1.935,0.721l1.176,0.114
		c0.227,0.303,0.189,0.758-0.076,0.948c-1.707-0.076-3.034-0.114-4.437-0.114c-1.593,0-2.617,0.038-3.944,0.114
		c-0.265-0.19-0.304-0.721-0.076-0.948l1.024-0.114c0.872-0.113,1.479-0.341,1.668-0.759c0.531-1.365,0.493-5.992,0.493-7.812
		V10.769c0-1.062-0.038-1.858-0.834-2.73c-0.531-0.531-1.441-0.796-2.351-0.91l-0.645-0.076c-0.227-0.228-0.227-0.797,0.076-0.948
		c1.593,0.113,3.602,0.113,4.285,0.113c0.606,0,1.251-0.038,1.744-0.113c0.759,1.934,5.234,6.939,6.485,8.343l3.679,4.133
		c2.616,2.92,4.474,5.044,6.257,6.864h0.076c0.152-0.19,0.152-0.797,0.152-1.593v-8.115c0-1.783-0.038-6.713-0.758-7.85
		c-0.227-0.341-0.834-0.569-2.351-0.758l-0.644-0.076c-0.265-0.228-0.228-0.834,0.076-0.948c1.745,0.076,3.034,0.113,4.474,0.113
		c1.631,0,2.617-0.038,3.907-0.113c0.303,0.19,0.303,0.72,0.076,0.948l-0.531,0.076c-1.213,0.189-1.972,0.493-2.123,0.796
		c-0.645,1.365-0.569,6.067-0.569,7.812V24.8z"/>
	<path fill="#3C5C62" d="M189.898,22.449c-0.265-0.834-0.417-0.948-1.554-0.948h-5.727c-0.948,0-1.175,0.114-1.441,0.91
		l-1.327,3.982c-0.569,1.707-0.834,2.73-0.834,3.148c0,0.455,0.19,0.683,1.1,0.759l1.251,0.114c0.266,0.19,0.266,0.796-0.076,0.948
		c-0.986-0.076-2.161-0.076-3.943-0.114c-1.252,0-2.617,0.075-3.64,0.114c-0.227-0.152-0.304-0.758-0.076-0.948l1.251-0.114
		c0.91-0.076,1.744-0.493,2.275-1.858c0.682-1.744,1.744-4.209,3.337-8.457l3.868-10.238c0.531-1.365,0.758-2.086,0.644-2.693
		c0.911-0.266,1.556-0.948,1.972-1.441c0.228,0,0.493,0.075,0.569,0.341c0.493,1.669,1.099,3.413,1.669,5.082l5.196,15.245
		c1.099,3.261,1.592,3.83,3.223,4.02l1.024,0.114c0.265,0.19,0.19,0.796,0,0.948c-1.554-0.076-2.882-0.114-4.589-0.114
		c-1.82,0-3.261,0.075-4.361,0.114c-0.303-0.152-0.34-0.758-0.075-0.948l1.099-0.114c0.796-0.076,1.327-0.303,1.327-0.683
		c0-0.417-0.19-1.1-0.493-2.01L189.898,22.449z M182.389,19.073c-0.303,0.872-0.265,0.91,0.797,0.91h4.664
		c1.1,0,1.176-0.152,0.834-1.175l-2.048-6.182c-0.304-0.91-0.645-1.934-0.872-2.389h-0.076c-0.113,0.19-0.493,1.1-0.91,2.237
		L182.389,19.073z"/>
	<path fill="#3C5C62" d="M206.734,11.907c0-3.982-0.075-4.589-2.464-4.778l-0.948-0.076c-0.228-0.152-0.152-0.834,0.076-0.948
		c2.124,0.076,3.413,0.113,4.93,0.113c1.479,0,2.768-0.038,4.664-0.113c0.227,0.113,0.304,0.796,0.076,0.948l-0.91,0.076
		c-2.238,0.189-2.314,0.796-2.314,4.778v13.196c0,2.389,0.114,3.375,0.796,4.096c0.417,0.417,1.138,0.872,4.133,0.872
		c3.224,0,4.02-0.151,4.627-0.493c0.758-0.455,1.744-1.82,2.503-3.754c0.227-0.189,0.948-0.038,0.948,0.228
		c0,0.418-1.062,4.285-1.593,5.309c-1.934-0.076-5.536-0.114-9.442-0.114h-3.489c-1.593,0-2.806,0.038-4.93,0.114
		c-0.228-0.114-0.304-0.721-0.076-0.948l1.138-0.114c2.199-0.228,2.275-0.759,2.275-4.74V11.907z"/>
	<path fill="#3C5C62" d="M254.666,21.122c0.873,1.782,1.707,3.526,2.617,5.195h0.075c1.025-1.782,1.973-3.754,2.92-5.688
		l3.566-7.243c1.705-3.451,2.805-5.537,2.882-7.281c1.289,0.113,2.086,0.113,2.844,0.113c0.948,0,2.201-0.038,3.376-0.113
		c0.227,0.151,0.227,0.796,0.038,0.948l-0.797,0.076c-2.39,0.227-2.692,0.947-2.655,3.602c0.075,4.02,0.113,11.036,0.417,16.496
		c0.114,1.896,0.075,2.92,1.858,3.072l1.214,0.114c0.227,0.227,0.189,0.796-0.075,0.948c-1.555-0.076-3.111-0.114-4.476-0.114
		c-1.328,0-3.034,0.038-4.588,0.114c-0.266-0.19-0.303-0.721-0.076-0.948l1.1-0.114c1.857-0.19,1.857-0.797,1.857-3.224
		l-0.113-15.813h-0.075c-0.265,0.417-1.707,3.451-2.464,4.93l-3.376,6.637c-1.706,3.336-3.413,6.901-4.095,8.646
		c-0.075,0.113-0.228,0.152-0.379,0.152c-0.075,0-0.266-0.039-0.341-0.152c-0.645-2.01-2.465-5.726-3.337-7.584l-3.413-7.319
		c-0.797-1.744-1.593-3.716-2.428-5.46h-0.076c-0.152,2.351-0.265,4.551-0.379,6.75c-0.114,2.313-0.266,5.688-0.266,8.912
		c0,2.806,0.227,3.413,1.706,3.527l1.442,0.114c0.265,0.227,0.227,0.834-0.038,0.948c-1.29-0.076-2.768-0.114-4.21-0.114
		c-1.213,0-2.578,0.038-3.868,0.114c-0.227-0.19-0.303-0.758-0.076-0.948l0.834-0.114c1.593-0.228,2.123-0.455,2.351-3.11
		c0.227-2.503,0.417-4.589,0.644-8.343c0.19-3.148,0.342-6.371,0.418-8.456c0.076-2.389-0.228-2.958-2.541-3.261l-0.607-0.076
		c-0.19-0.228-0.152-0.797,0.151-0.948c1.138,0.076,2.048,0.113,2.996,0.113c0.872,0,1.896,0,3.148-0.113
		c-0.152,1.479,0.797,3.83,1.971,6.257L254.666,21.122z"/>
	<path fill="#3C5C62" d="M301.234,15.737c0-2.351-0.076-6.713-0.72-7.85c-0.266-0.455-0.948-0.72-1.896-0.797l-0.948-0.076
		c-0.227-0.265-0.152-0.759,0.075-0.91c1.442,0.076,2.845,0.113,4.323,0.113c1.593,0,2.617-0.038,3.983-0.113
		c0.301,0.19,0.264,0.682,0.075,0.91l-0.911,0.076c-0.948,0.076-1.668,0.417-1.897,0.911c-0.53,1.251-0.53,5.612-0.53,7.736v4.285
		c0,3.3-0.531,6.788-2.655,9.064c-1.631,1.782-4.436,2.768-7.243,2.768c-2.617,0-5.233-0.493-7.091-2.086
		c-2.01-1.668-2.959-4.437-2.959-8.949v-8.95c0-3.944-0.076-4.589-2.275-4.779l-0.948-0.076c-0.227-0.152-0.151-0.796,0.075-0.91
		c1.897,0.076,3.186,0.113,4.704,0.113c1.555,0,2.805-0.038,4.664-0.113c0.227,0.113,0.303,0.758,0.075,0.91l-0.91,0.076
		c-2.2,0.19-2.275,0.834-2.275,4.779v8.191c0,6.105,1.896,10.125,7.698,10.125c5.498,0,7.584-4.324,7.584-10.088V15.737z"/>
	<path fill="#3C5C62" d="M318.866,31.853c-3.185,0-5.194-0.986-5.915-1.403c-0.456-0.834-0.948-3.526-1.025-5.309
		c0.19-0.265,0.759-0.341,0.911-0.113c0.57,1.934,2.123,5.65,6.523,5.65c3.186,0,4.74-2.086,4.74-4.361
		c0-1.669-0.342-3.527-3.109-5.309l-3.603-2.351c-1.896-1.251-4.095-3.413-4.095-6.522c0-3.603,2.806-6.522,7.736-6.522
		c1.175,0,2.541,0.227,3.527,0.493c0.493,0.151,1.024,0.227,1.328,0.227c0.341,0.91,0.682,3.034,0.682,4.626
		c-0.152,0.227-0.757,0.341-0.947,0.114c-0.493-1.821-1.517-4.286-5.157-4.286c-3.717,0-4.513,2.465-4.513,4.209
		c0,2.2,1.82,3.793,3.223,4.665l3.034,1.896c2.39,1.479,4.74,3.678,4.74,7.281C326.944,29.009,323.796,31.853,318.866,31.853z"/>
	<path fill="#3C5C62" d="M337.561,11.907c0-3.945-0.075-4.513-2.313-4.778l-0.607-0.076c-0.227-0.152-0.152-0.834,0.076-0.948
		c1.63,0.076,2.92,0.113,4.475,0.113h7.128c2.428,0,4.665,0,5.12-0.113c0.228,0.645,0.455,3.374,0.607,5.044
		c-0.152,0.227-0.759,0.303-0.949,0.075c-0.568-1.782-0.91-3.109-2.881-3.602c-0.797-0.189-2.01-0.227-3.679-0.227h-2.73
		c-1.138,0-1.138,0.076-1.138,1.517v7.584c0,1.062,0.113,1.062,1.251,1.062h2.2c1.593,0,2.768-0.076,3.223-0.228
		c0.456-0.151,0.72-0.379,0.911-1.327l0.302-1.555c0.19-0.228,0.834-0.228,0.987,0.038c0,0.91-0.152,2.389-0.152,3.83
		c0,1.365,0.152,2.807,0.152,3.64c-0.152,0.265-0.797,0.265-0.987,0.039l-0.34-1.479c-0.152-0.683-0.417-1.251-1.176-1.441
		c-0.531-0.152-1.441-0.19-2.92-0.19h-2.2c-1.137,0-1.251,0.038-1.251,1.024v5.347c0,2.01,0.113,3.299,0.719,3.944
		c0.456,0.455,1.252,0.872,4.589,0.872c2.92,0,4.02-0.151,4.855-0.569c0.681-0.379,1.706-1.706,2.691-3.679
		c0.266-0.189,0.797-0.075,0.948,0.266c-0.266,1.327-1.214,4.247-1.706,5.271c-3.413-0.076-6.788-0.114-10.162-0.114h-3.413
		c-1.631,0-2.919,0.038-5.158,0.114c-0.227-0.114-0.303-0.721-0.075-0.948l1.251-0.114c2.162-0.19,2.351-0.759,2.351-4.74V11.907z"
		/>
	<path fill="#3C5C62" d="M381.588,15.737c0-2.351-0.075-6.713-0.719-7.85c-0.266-0.455-0.949-0.72-1.896-0.797l-0.948-0.076
		c-0.228-0.265-0.152-0.759,0.075-0.91c1.442,0.076,2.845,0.113,4.323,0.113c1.593,0,2.616-0.038,3.983-0.113
		c0.301,0.19,0.264,0.682,0.075,0.91L385.57,7.09c-0.949,0.076-1.668,0.417-1.896,0.911c-0.53,1.251-0.53,5.612-0.53,7.736v4.285
		c0,3.3-0.531,6.788-2.655,9.064c-1.631,1.782-4.437,2.768-7.243,2.768c-2.617,0-5.233-0.493-7.092-2.086
		c-2.01-1.668-2.958-4.437-2.958-8.949v-8.95c0-3.944-0.076-4.589-2.276-4.779l-0.947-0.076c-0.227-0.152-0.151-0.796,0.075-0.91
		c1.897,0.076,3.187,0.113,4.702,0.113c1.557,0,2.807-0.038,4.666-0.113c0.227,0.113,0.302,0.758,0.075,0.91L368.58,7.09
		c-2.199,0.19-2.274,0.834-2.274,4.779v8.191c0,6.105,1.895,10.125,7.698,10.125c5.497,0,7.583-4.324,7.583-10.088V15.737z"/>
	<path fill="#3C5C62" d="M405.478,21.122c0.873,1.782,1.706,3.526,2.617,5.195h0.075c1.024-1.782,1.973-3.754,2.921-5.688
		l3.563-7.243c1.706-3.451,2.807-5.537,2.882-7.281c1.29,0.113,2.086,0.113,2.845,0.113c0.948,0,2.2-0.038,3.374-0.113
		c0.228,0.151,0.228,0.796,0.038,0.948l-0.795,0.076c-2.39,0.227-2.693,0.947-2.656,3.602c0.076,4.02,0.115,11.036,0.417,16.496
		c0.115,1.896,0.077,2.92,1.859,3.072l1.213,0.114c0.227,0.227,0.189,0.796-0.075,0.948c-1.555-0.076-3.109-0.114-4.476-0.114
		c-1.326,0-3.032,0.038-4.589,0.114c-0.265-0.19-0.302-0.721-0.075-0.948l1.101-0.114c1.858-0.19,1.858-0.797,1.858-3.224
		l-0.114-15.813h-0.075c-0.266,0.417-1.706,3.451-2.465,4.93l-3.376,6.637c-1.706,3.336-3.413,6.901-4.095,8.646
		c-0.076,0.113-0.228,0.152-0.379,0.152c-0.077,0-0.266-0.039-0.342-0.152c-0.645-2.01-2.465-5.726-3.337-7.584l-3.413-7.319
		c-0.797-1.744-1.593-3.716-2.428-5.46h-0.076c-0.151,2.351-0.265,4.551-0.379,6.75c-0.114,2.313-0.266,5.688-0.266,8.912
		c0,2.806,0.227,3.413,1.707,3.527l1.441,0.114c0.265,0.227,0.228,0.834-0.039,0.948c-1.288-0.076-2.768-0.114-4.209-0.114
		c-1.214,0-2.578,0.038-3.867,0.114c-0.227-0.19-0.303-0.758-0.075-0.948l0.833-0.114c1.593-0.228,2.123-0.455,2.35-3.11
		c0.229-2.503,0.418-4.589,0.646-8.343c0.189-3.148,0.342-6.371,0.417-8.456c0.075-2.389-0.228-2.958-2.541-3.261l-0.607-0.076
		c-0.19-0.228-0.152-0.797,0.152-0.948c1.138,0.076,2.048,0.113,2.996,0.113c0.871,0,1.896,0,3.147-0.113
		c-0.151,1.479,0.797,3.83,1.973,6.257L405.478,21.122z"/>
	<path fill="#3C5C62" d="M444.119,18.998c0-7.585,5.689-13.386,13.501-13.386c8.759,0,13.159,6.333,13.159,13.007
		c0,7.66-5.84,13.235-13.159,13.235C449.201,31.853,444.119,25.823,444.119,18.998z M466.986,19.794
		c0-6.256-2.769-13.007-10.012-13.007c-3.943,0-9.063,2.692-9.063,10.997c0,5.612,2.73,12.893,10.2,12.893
		C462.663,30.678,466.986,27.264,466.986,19.794z"/>
	<path fill="#3C5C62" d="M484.277,16.912c0,1.024,0.114,1.024,1.251,1.024h2.578c1.555,0,2.768-0.076,3.224-0.228
		c0.416-0.152,0.72-0.341,0.947-1.327l0.342-1.517c0.189-0.228,0.834-0.228,0.986-0.001c0,0.911-0.152,2.428-0.152,3.83
		c0,1.366,0.152,2.807,0.152,3.679c-0.152,0.227-0.721,0.227-0.986,0l-0.379-1.478c-0.189-0.683-0.493-1.213-1.214-1.441
		c-0.53-0.152-1.478-0.19-2.92-0.19h-2.578c-1.138,0-1.251,0.038-1.251,1.024v5.271c0,3.982,0.076,4.551,2.313,4.74l1.289,0.114
		c0.228,0.152,0.152,0.834-0.075,0.948c-2.237-0.076-3.527-0.114-5.044-0.114c-1.669,0-2.957,0.038-4.74,0.114
		c-0.228-0.114-0.303-0.721-0.076-0.948l0.949-0.114c2.199-0.266,2.275-0.759,2.275-4.74V11.907c0-3.982-0.076-4.513-2.275-4.778
		l-0.607-0.076c-0.227-0.152-0.152-0.834,0.075-0.948c1.593,0.076,2.882,0.113,4.399,0.113h6.978c2.426,0,4.627,0,5.119-0.113
		c0,1.744,0.039,3.564,0.114,5.005c-0.114,0.227-0.643,0.341-0.91,0.113c-0.303-1.706-0.759-3.109-2.655-3.602
		c-0.834-0.227-2.085-0.227-3.679-0.227h-2.313c-1.138,0-1.138,0.076-1.138,1.517V16.912z"/>
</g>
<polygon fill="#3C5C62" points="261.768,127.896 204.272,127.896 251.34,38.993 308.836,38.993 "/>
<g>
	<g>
		<path fill="#FFFFFF" d="M264.597,76.236c2.825,0,4.294-0.075,5.311-0.151c0.263,0.188,0.263,0.678,0.075,0.904l-1.658,0.264
			c-2.071,0.339-3.163,2.222-4.331,4.106c-1.243,1.996-2.787,4.105-4.369,6.29c0.64,1.017,0.866,1.318,1.242,1.883
			c1.996,3.051,3.918,3.39,5.462,3.39c1.168,0,2.524-0.452,3.39-1.356c0.3,0.038,0.527,0.339,0.413,0.678
			c-1.506,1.883-3.653,2.524-5.988,2.524c-1.695,0-3.315-0.452-4.03-1.093c-0.565-0.49-1.884-2.75-2.298-3.465
			c-2.148,2.411-4.859,4.557-8.211,4.557c-5.311,0-7.382-3.805-7.382-6.78c0-3.917,2.75-6.215,6.102-8.211
			c-1.356-0.942-2.9-2.411-2.9-4.557c0-2.976,2.561-5.085,5.273-5.085c2.862,0,4.858,1.883,4.858,4.482
			c0,2.486-1.958,3.465-3.804,4.52c2.071,1.28,4.67,3.691,7.194,7.382c0.867-1.168,2.863-4.407,3.917-6.591
			c0.64-1.281,0.829-1.846,0.829-2.071c0-0.264-0.377-0.49-0.979-0.565l-1.281-0.151c-0.226-0.226-0.226-0.716,0.075-0.904H264.597z
			 M245.049,86.857c0,3.352,2.298,5.688,5.612,5.688c2.524,0,4.784-1.469,6.478-3.466c-1.808-3.164-4.821-6.516-7.834-8.512
			C247.422,81.509,245.049,83.806,245.049,86.857z M247.836,74.315c0,1.582,1.055,2.938,3.089,4.105
			c1.281-0.866,2.26-2.109,2.26-3.917c0-1.657-0.828-3.277-2.637-3.277C248.89,71.226,247.836,72.77,247.836,74.315z"/>
	</g>
</g>
<line fill="none" stroke="#739EAF" stroke-width="1.2687" x1="317.822" y1="44.956" x2="495.009" y2="44.956"/>
<line fill="none" stroke="#739EAF" stroke-width="1.2673" x1="4.222" y1="44.956" x2="244.19" y2="44.956"/>
<line fill="none" stroke="#739EAF" stroke-width="1.2256" x1="270.554" y1="122.547" x2="494.994" y2="122.547"/>
<line fill="none" stroke="#739EAF" stroke-width="1.1346" x1="4.548" y1="122.547" x2="196.906" y2="122.547"/>
</svg>
