<?xml version="1.0" encoding="utf-8"?>
<!-- Generator: Adobe Illustrator 17.0.0, SVG Export Plug-In . SVG Version: 6.00 Build 0)  -->
<!DOCTYPE svg PUBLIC "-//W3C//DTD SVG 1.1//EN" "http://www.w3.org/Graphics/SVG/1.1/DTD/svg11.dtd">
<svg version="1.1" id="Layer_1" xmlns="http://www.w3.org/2000/svg" xmlns:xlink="http://www.w3.org/1999/xlink" x="0px" y="0px"
	 width="40px" height="40px" viewBox="0 0 40 40" enable-background="new 0 0 40 40" xml:space="preserve">
<path fill="#739FB0" d="M20.155,0.845C9.577,0.845,1,9.422,1,20c0,10.581,8.577,19.155,19.155,19.155S39.309,30.581,39.309,20
	C39.309,9.422,30.732,0.845,20.155,0.845z M27.771,16.095c0.008,0.169,0.011,0.336,0.011,0.508c0,5.193-3.953,11.182-11.182,11.182
	c-2.22,0-4.285-0.65-6.024-1.765c0.309,0.035,0.621,0.054,0.937,0.054c1.843,0,3.535-0.627,4.88-1.681
	c-1.718-0.033-3.171-1.169-3.669-2.728c0.24,0.044,0.485,0.07,0.739,0.07c0.359,0,0.706-0.049,1.035-0.138
	c-1.796-0.362-3.152-1.95-3.152-3.853c0-0.016,0-0.033,0-0.049c0.531,0.294,1.137,0.47,1.781,0.491
	c-1.054-0.703-1.748-1.908-1.748-3.272c0-0.72,0.195-1.396,0.532-1.976c1.937,2.378,4.835,3.942,8.1,4.105
	c-0.067-0.287-0.102-0.586-0.102-0.895c0-2.17,1.759-3.928,3.931-3.928c1.13,0,2.151,0.477,2.868,1.239
	c0.894-0.175,1.736-0.503,2.496-0.954c-0.294,0.919-0.916,1.689-1.728,2.174c0.795-0.094,1.552-0.307,2.257-0.617
	C29.206,14.849,28.539,15.541,27.771,16.095z"/>
</svg>
